1,6,0,15
1,6,1,13
1,6,2,10
1,6,3,7
1,6,4,9
1,6,5,6
1,6,6,9
1,6,7,8
1,6,8,11
1,6,9,12
1,6,10,15
1,6,11,17
1,6,12,16
1,6,13,15
1,6,14,16
1,6,15,12
1,6,16,12
1,6,17,16
1,6,18,17
1,6,19,20
1,6,20,17
1,6,21,19
1,6,22,20
1,6,23,15
1,0,0,14
1,0,1,12
1,0,2,14
1,0,3,12
1,0,4,12
1,0,5,11
1,0,6,13
1,0,7,14
1,0,8,12
1,0,9,22
1,0,10,32
1,0,11,31
1,0,12,35
1,0,13,26
1,0,14,34
1,0,15,30
1,0,16,27
1,0,17,27
1,0,18,24
1,0,19,26
1,0,20,29
1,0,21,32
1,0,22,30
1,0,23,27
1,1,0,21
1,1,1,18
1,1,2,19
1,1,3,13
1,1,4,11
1,1,5,11
1,1,6,11
1,1,7,14
1,1,8,15
1,1,9,29
1,1,10,33
1,1,11,32
1,1,12,32
1,1,13,29
1,1,14,27
1,1,15,26
1,1,16,28
1,1,17,26
1,1,18,25
1,1,19,29
1,1,20,26
1,1,21,24
1,1,22,25
1,1,23,20
1,2,0,18
1,2,1,18
1,2,2,13
1,2,3,13
1,2,4,10
1,2,5,12
1,2,6,13
1,2,7,11
1,2,8,13
1,2,9,22
1,2,10,26
1,2,11,27
1,2,12,31
1,2,13,24
1,2,14,23
1,2,15,26
1,2,16,26
1,2,17,24
1,2,18,23
1,2,19,25
1,2,20,26
1,2,21,24
1,2,22,26
1,2,23,24
1,3,0,19
1,3,1,20
1,3,2,18
1,3,3,13
1,3,4,13
1,3,5,9
1,3,6,12
1,3,7,12
1,3,8,15
1,3,9,16
1,3,10,23
1,3,11,24
1,3,12,25
1,3,13,24
1,3,14,26
1,3,15,22
1,3,16,20
1,3,17,20
1,3,18,22
1,3,19,26
1,3,20,22
1,3,21,21
1,3,22,21
1,3,23,21
1,4,0,16
1,4,1,18
1,4,2,19
1,4,3,14
1,4,4,12
1,4,5,13
1,4,6,14
1,4,7,14
1,4,8,13
1,4,9,20
1,4,10,22
1,4,11,26
1,4,12,26
1,4,13,21
1,4,14,23
1,4,15,23
1,4,16,19
1,4,17,19
1,4,18,20
1,4,19,24
1,4,20,18
1,4,21,19
1,4,22,16
1,4,23,17
1,5,0,16
1,5,1,16
1,5,2,10
1,5,3,9
1,5,4,8
1,5,5,7
1,5,6,9
1,5,7,8
1,5,8,12
1,5,9,13
1,5,10,17
1,5,11,14
1,5,12,14
1,5,13,14
1,5,14,14
1,5,15,11
1,5,16,15
1,5,17,13
1,5,18,12
1,5,19,17
1,5,20,18
1,5,21,17
1,5,22,16
1,5,23,15
1,6,0,13
1,6,1,16
1,6,2,11
1,6,3,8
1,6,4,10
1,6,5,10
1,6,6,10
1,6,7,9
1,6,8,11
1,6,9,12
1,6,10,18
1,6,11,14
1,6,12,17
1,6,13,14
1,6,14,14
1,6,15,14
1,6,16,12
1,6,17,14
1,6,18,18
1,6,19,13
1,6,20,16
1,6,21,18
1,6,22,14
1,6,23,14
1,0,0,13
1,0,1,15
1,0,2,11
1,0,3,10
1,0,4,9
1,0,5,8
1,0,6,8
1,0,7,10
1,0,8,11
1,0,9,17
1,0,10,19
1,0,11,22
1,0,12,23
1,0,13,23
1,0,14,24
1,0,15,24
1,0,16,19
1,0,17,19
1,0,18,20
1,0,19,31
1,0,20,25
1,0,21,35
1,0,22,21
1,0,23,24
1,1,0,19
1,1,1,19
1,1,2,18
1,1,3,17
1,1,4,12
1,1,5,10
1,1,6,14
1,1,7,15
1,1,8,14
1,1,9,34
1,1,10,40
1,1,11,38
1,1,12,36
1,1,13,27
1,1,14,48
1,1,15,43
1,1,16,41
1,1,17,35
1,1,18,40
1,1,19,40
1,1,20,40
1,1,21,36
1,1,22,37
1,1,23,35
1,2,0,28
1,2,1,25
1,2,2,19
1,2,3,21
1,2,4,20
1,2,5,15
1,2,6,17
1,2,7,14
1,2,8,19
1,2,9,22
1,2,10,30
1,2,11,26
1,2,12,26
1,2,13,23
1,2,14,23
1,2,15,24
1,2,16,22
1,2,17,24
1,2,18,26
1,2,19,27
1,2,20,22
1,2,21,23
1,2,22,22
1,2,23,22
1,3,0,22
1,3,1,17
1,3,2,15
1,3,3,12
1,3,4,13
1,3,5,9
1,3,6,14
1,3,7,13
1,3,8,15
1,3,9,27
1,3,10,39
1,3,11,40
1,3,12,36
1,3,13,34
1,3,14,33
1,3,15,28
1,3,16,30
1,3,17,26
1,3,18,30
1,3,19,35
1,3,20,38
1,3,21,34
1,3,22,30
1,3,23,27
1,4,0,24
1,4,1,21
1,4,2,16
1,4,3,16
1,4,4,13
1,4,5,11
1,4,6,13
1,4,7,15
1,4,8,17
1,4,9,18
1,4,10,24
1,4,11,41
1,4,12,29
1,4,13,25
1,4,14,25
1,4,15,26
1,4,16,25
1,4,17,24
1,4,18,26
1,4,19,24
1,4,20,28
1,4,21,22
1,4,22,23
1,4,23,18
1,5,0,21
1,5,1,20
1,5,2,15
1,5,3,13
1,5,4,10
1,5,5,10
1,5,6,12
1,5,7,9
1,5,8,11
1,5,9,15
1,5,10,16
1,5,11,16
1,5,12,12
1,5,13,11
1,5,14,14
1,5,15,16
1,5,16,18
1,5,17,13
1,5,18,17
1,5,19,15
1,5,20,19
1,5,21,15
1,5,22,19
1,5,23,15
1,6,0,15
1,6,1,13
1,6,2,14
1,6,3,10
1,6,4,8
1,6,5,9
1,6,6,9
1,6,7,9
1,6,8,9
1,6,9,16
1,6,10,18
1,6,11,18
1,6,12,17
1,6,13,18
1,6,14,14
1,6,15,15
1,6,16,13
1,6,17,15
1,6,18,19
1,6,19,18
1,6,20,21
1,6,21,17
1,6,22,17
1,6,23,15
1,0,0,17
1,0,1,14
1,0,2,13
1,0,3,15
1,0,4,12
1,0,5,12
1,0,6,13
1,0,7,14
1,0,8,13
1,0,9,16
1,0,10,26
1,0,11,21
1,0,12,26
1,0,13,24
1,0,14,26
1,0,15,22
1,0,16,24
1,0,17,26
1,0,18,23
1,0,19,29
1,0,20,31
1,0,21,27
1,0,22,27
1,0,23,26
1,1,0,23
1,1,1,21
1,1,2,19
1,1,3,16
1,1,4,11
1,1,5,11
1,1,6,15
1,1,7,12
1,1,8,12
1,1,9,18
1,1,10,31
1,1,11,42
1,1,12,37
1,1,13,30
1,1,14,33
1,1,15,28
1,1,16,29
1,1,17,28
1,1,18,28
1,1,19,31
1,1,20,28
1,1,21,26
1,1,22,26
1,1,23,27
1,2,0,24
1,2,1,23
1,2,2,20
1,2,3,19
1,2,4,20
1,2,5,16
1,2,6,19
1,2,7,16
1,2,8,17
1,2,9,19
1,2,10,30
1,2,11,44
1,2,12,35
1,2,13,34
1,2,14,31
1,2,15,31
1,2,16,28
1,2,17,34
1,2,18,37
1,2,19,37
1,2,20,34
1,2,21,31
1,2,22,29
1,2,23,28
1,3,0,32
1,3,1,23
1,3,2,20
1,3,3,16
1,3,4,18
1,3,5,17
1,3,6,16
1,3,7,17
1,3,8,18
1,3,9,25
1,3,10,31
1,3,11,32
1,3,12,31
1,3,13,29
1,3,14,31
1,3,15,31
1,3,16,30
1,3,17,28
1,3,18,29
1,3,19,36
1,3,20,29
1,3,21,28
1,3,22,30
1,3,23,29
1,4,0,24
1,4,1,20
1,4,2,15
1,4,3,14
1,4,4,13
1,4,5,8
1,4,6,12
1,4,7,14
1,4,8,15
1,4,9,20
1,4,10,26
1,4,11,26
1,4,12,26
1,4,13,21
1,4,14,26
1,4,15,29
1,4,16,20
1,4,17,22
1,4,18,25
1,4,19,27
1,4,20,26
1,4,21,24
1,4,22,25
1,4,23,21
1,5,0,17
1,5,1,16
1,5,2,15
1,5,3,15
1,5,4,15
1,5,5,8
1,5,6,12
1,5,7,13
1,5,8,12
1,5,9,16
1,5,10,18
1,5,11,17
1,5,12,18
1,5,13,15
1,5,14,21
1,5,15,18
1,5,16,17
1,5,17,17
1,5,18,19
1,5,19,22
2,6,0,6
2,6,1,6
2,6,2,5
2,6,3,6
2,6,4,7
2,6,5,2
2,6,6,4
2,6,7,4
2,6,8,3
2,6,9,3
2,6,10,8
2,6,11,5
2,6,12,6
2,6,13,6
2,6,14,5
2,6,15,3
2,6,16,8
2,6,17,7
2,6,18,8
2,6,19,7
2,6,20,6
2,6,21,5
2,6,22,9
2,6,23,4
2,0,0,8
2,0,1,6
2,0,2,8
2,0,3,5
2,0,4,3
2,0,5,4
2,0,6,5
2,0,7,6
2,0,8,8
2,0,9,5
2,0,10,8
2,0,11,9
2,0,12,11
2,0,13,8
2,0,14,8
2,0,15,8
2,0,16,11
2,0,17,6
2,0,18,12
2,0,19,10
2,0,20,12
2,0,21,11
2,0,22,12
2,0,23,13
2,1,0,8
2,1,1,8
2,1,2,8
2,1,3,8
2,1,4,10
2,1,5,6
2,1,6,4
2,1,7,6
2,1,8,6
2,1,9,9
2,1,10,11
2,1,11,10
2,1,12,9
2,1,13,8
2,1,14,10
2,1,15,11
2,1,16,8
2,1,17,14
2,1,18,9
2,1,19,10
2,1,20,12
2,1,21,8
2,1,22,13
2,1,23,11
2,2,0,10
2,2,1,8
2,2,2,7
2,2,3,7
2,2,4,5
2,2,5,6
2,2,6,6
2,2,7,6
2,2,8,9
2,2,9,6
2,2,10,8
2,2,11,7
2,2,12,10
2,2,13,10
2,2,14,10
2,2,15,7
2,2,16,8
2,2,17,12
2,2,18,9
2,2,19,9
2,2,20,10
2,2,21,10
2,2,22,11
2,2,23,8
2,3,0,8
2,3,1,7
2,3,2,8
2,3,3,5
2,3,4,4
2,3,5,6
2,3,6,5
2,3,7,6
2,3,8,8
2,3,9,6
2,3,10,7
2,3,11,11
2,3,12,10
2,3,13,7
2,3,14,12
2,3,15,10
2,3,16,11
2,3,17,7
2,3,18,9
2,3,19,13
2,3,20,10
2,3,21,12
2,3,22,8
2,3,23,10
2,4,0,6
2,4,1,8
2,4,2,7
2,4,3,7
2,4,4,9
2,4,5,4
2,4,6,8
2,4,7,6
2,4,8,4
2,4,9,7
2,4,10,11
2,4,11,11
2,4,12,8
2,4,13,5
2,4,14,9
2,4,15,10
2,4,16,13
2,4,17,12
2,4,18,10
2,4,19,7
2,4,20,12
2,4,21,10
2,4,22,9
2,4,23,6
2,5,0,5
2,5,1,10
2,5,2,10
2,5,3,10
2,5,4,9
2,5,5,8
2,5,6,6
2,5,7,2
2,5,8,6
2,5,9,5
2,5,10,8
2,5,11,6
2,5,12,6
2,5,13,7
2,5,14,3
2,5,15,8
2,5,16,4
2,5,17,6
2,5,18,5
2,5,19,4
2,5,20,7
2,5,21,7
2,5,22,7
2,5,23,8
2,6,0,4
2,6,1,3
2,6,2,7
2,6,3,6
2,6,4,7
2,6,5,6
2,6,6,6
2,6,7,2
2,6,8,5
2,6,9,5
2,6,10,8
2,6,11,7
2,6,12,8
2,6,13,8
2,6,14,7
2,6,15,4
2,6,16,9
2,6,17,6
2,6,18,8
2,6,19,8
2,6,20,6
2,6,21,8
2,6,22,8
2,6,23,7
2,0,0,7
2,0,1,4
2,0,2,6
2,0,3,6
2,0,4,5
2,0,5,9
2,0,6,4
2,0,7,9
2,0,8,9
2,0,9,10
2,0,10,9
2,0,11,7
2,0,12,9
2,0,13,7
2,0,14,12
2,0,15,12
2,0,16,8
2,0,17,12
2,0,18,9
2,0,19,13
2,0,20,12
2,0,21,12
2,0,22,11
2,0,23,8
2,1,0,9
2,1,1,11
2,1,2,9
2,1,3,8
2,1,4,7
2,1,5,6
2,1,6,6
2,1,7,5
2,1,8,5
2,1,9,7
2,1,10,6
2,1,11,8
2,1,12,6
2,1,13,8
2,1,14,9
2,1,15,11
2,1,16,13
2,1,17,8
2,1,18,11
2,1,19,10
2,1,20,14
2,1,21,9
2,1,22,9
2,1,23,7
2,2,0,14
2,2,1,6
2,2,2,10
2,2,3,6
2,2,4,6
2,2,5,6
2,2,6,6
2,2,7,8
2,2,8,9
2,2,9,6
2,2,10,8
2,2,11,4
2,2,12,6
2,2,13,11
2,2,14,11
2,2,15,6
2,2,16,6
2,2,17,10
2,2,18,10
2,2,19,8
2,2,20,10
2,2,21,10
2,2,22,11
2,2,23,10
2,3,0,9
2,3,1,12
2,3,2,10
2,3,3,4
2,3,4,6
2,3,5,6
2,3,6,8
2,3,7,3
2,3,8,4
2,3,9,8
2,3,10,10
2,3,11,8
2,3,12,10
2,3,13,9
2,3,14,11
2,3,15,11
2,3,16,9
2,3,17,8
2,3,18,9
2,3,19,13
2,3,20,12
2,3,21,9
2,3,22,10
2,3,23,11
2,4,0,9
2,4,1,8
2,4,2,11
2,4,3,11
2,4,4,7
2,4,5,5
2,4,6,4
2,4,7,7
2,4,8,5
2,4,9,8
2,4,10,8
2,4,11,11
2,4,12,8
2,4,13,9
2,4,14,11
2,4,15,11
2,4,16,6
2,4,17,12
2,4,18,7
2,4,19,8
2,4,20,9
2,4,21,9
2,4,22,12
2,4,23,6
2,5,0,6
2,5,1,6
2,5,2,8
2,5,3,7
2,5,4,8
2,5,5,6
2,5,6,5
2,5,7,4
2,5,8,4
2,5,9,8
2,5,10,7
2,5,11,6
2,5,12,7
2,5,13,8
2,5,14,5
2,5,15,8
2,5,16,4
2,5,17,7
2,5,18,8
2,5,19,5
2,5,20,7
2,5,21,9
2,5,22,6
2,5,23,6
2,6,0,8
2,6,1,5
2,6,2,7
2,6,3,7
2,6,4,6
2,6,5,5
2,6,6,5
2,6,7,7
2,6,8,7
2,6,9,9
2,6,10,4
2,6,11,3
2,6,12,6
2,6,13,7
2,6,14,6
2,6,15,4
2,6,16,4
2,6,17,5
2,6,18,8
2,6,19,5
2,6,20,6
2,6,21,8
2,6,22,8
2,6,23,8
2,0,0,6
2,0,1,5
2,0,2,6
2,0,3,5
2,0,4,8
2,0,5,5
2,0,6,7
2,0,7,5
2,0,8,5
2,0,9,7
2,0,10,7
2,0,11,10
2,0,12,7
2,0,13,8
2,0,14,8
2,0,15,10
2,0,16,12
2,0,17,9
2,0,18,9
2,0,19,10
2,0,20,10
2,0,21,13
2,0,22,7
2,0,23,7
2,1,0,11
2,1,1,8
2,1,2,11
2,1,3,9
2,1,4,8
2,1,5,9
2,1,6,8
2,1,7,10
2,1,8,7
2,1,9,5
2,1,10,8
2,1,11,12
2,1,12,10
2,1,13,9
2,1,14,11
2,1,15,9
2,1,16,10
2,1,17,10
2,1,18,9
2,1,19,12
2,1,20,10
2,1,21,10
2,1,22,10
2,1,23,9
2,2,0,6
2,2,1,9
2,2,2,6
2,2,3,6
2,2,4,8
2,2,5,7
2,2,6,8
2,2,7,5
2,2,8,7
2,2,9,6
2,2,10,16
2,2,11,12
2,2,12,9
2,2,13,12
2,2,14,9
2,2,15,14
2,2,16,14
2,2,17,11
2,2,18,11
2,2,19,10
2,2,20,14
2,2,21,11
2,2,22,11
2,2,23,10
2,3,0,10
2,3,1,6
2,3,2,7
2,3,3,10
2,3,4,11
2,3,5,7
2,3,6,8
2,3,7,5
2,3,8,7
2,3,9,8
2,3,10,9
2,3,11,8
2,3,12,10
2,3,13,11
2,3,14,9
2,3,15,11
2,3,16,14
2,3,17,10
2,3,18,12
2,3,19,13
2,3,20,13
2,3,21,11
2,3,22,12
2,3,23,13
2,4,0,12
2,4,1,8
2,4,2,10
2,4,3,7
2,4,4,9
2,4,5,7
2,4,6,9
2,4,7,7
2,4,8,8
2,4,9,14
2,4,10,9
2,4,11,9
2,4,12,13
2,4,13,8
2,4,14,9
2,4,15,12
2,4,16,13
2,4,17,9
2,4,18,8
2,4,19,14
2,4,20,13
2,4,21,14
2,4,22,7
2,4,23,8
2,5,0,12
2,5,1,7
2,5,2,9
2,5,3,8
2,5,4,8
2,5,5,5
2,5,6,5
2,5,7,5
2,5,8,6
2,5,9,4
2,5,10,8
2,5,11,7
2,5,12,10
2,5,13,6
2,5,14,8
2,5,15,4
2,5,16,5
2,5,17,5
2,5,18,6
2,5,19,8
3,6,0,9
3,6,1,7
3,6,2,5
3,6,3,1
3,6,4,2
3,6,5,2
3,6,6,3
3,6,7,4
3,6,8,3
3,6,9,6
3,6,10,12
3,6,11,6
3,6,12,6
3,6,13,9
3,6,14,6
3,6,15,6
3,6,16,4
3,6,17,4
3,6,18,6
3,6,19,5
3,6,20,11
3,6,21,8
3,6,22,6
3,6,23,5
3,0,0,5
3,0,1,3
3,0,2,5
3,0,3,5
3,0,4,3
3,0,5,1
3,0,6,5
3,0,7,1
3,0,8,5
3,0,9,8
3,0,10,10
3,0,11,10
3,0,12,11
3,0,13,7
3,0,14,6
3,0,15,9
3,0,16,6
3,0,17,6
3,0,18,8
3,0,19,7
3,0,20,13
3,0,21,15
3,0,22,9
3,0,23,8
3,1,0,10
3,1,1,4
3,1,2,7
3,1,3,5
3,1,4,4
3,1,5,4
3,1,6,3
3,1,7,5
3,1,8,6
3,1,9,6
3,1,10,10
3,1,11,8
3,1,12,10
3,1,13,5
3,1,14,8
3,1,15,8
3,1,16,5
3,1,17,7
3,1,18,4
3,1,19,7
3,1,20,6
3,1,21,6
3,1,22,9
3,1,23,3
3,2,0,2
3,2,1,6
3,2,2,3
3,2,3,6
3,2,4,1
3,2,5,6
3,2,6,2
3,2,7,3
3,2,8,5
3,2,9,5
3,2,10,3
3,2,11,4
3,2,12,7
3,2,13,5
3,2,14,5
3,2,15,7
3,2,16,9
3,2,17,8
3,2,18,7
3,2,19,6
3,2,20,8
3,2,21,5
3,2,22,4
3,2,23,4
3,3,0,6
3,3,1,3
3,3,2,1
3,3,3,2
3,3,4,1
3,3,5,4
3,3,6,4
3,3,7,4
3,3,8,4
3,3,9,5
3,3,10,5
3,3,11,2
3,3,12,7
3,3,13,6
3,3,14,5
3,3,15,4
3,3,16,4
3,3,17,6
3,3,18,8
3,3,19,4
3,3,20,6
3,3,21,5
3,3,22,4
3,3,23,6
3,4,0,3
3,4,1,3
3,4,2,2
3,4,3,3
3,4,4,1
3,4,5,3
3,4,6,2
3,4,7,5
3,4,8,3
3,4,9,7
3,4,10,2
3,4,11,6
3,4,12,5
3,4,13,3
3,4,14,7
3,4,15,3
3,4,16,5
3,4,17,5
3,4,18,8
3,4,19,6
3,4,20,2
3,4,21,5
3,4,22,6
3,4,23,6
3,5,0,3
3,5,1,6
3,5,2,3
3,5,3,4
3,5,4,5
3,5,5,6
3,5,6,1
3,5,7,2
3,5,8,2
3,5,9,2
3,5,10,3
3,5,11,4
3,5,12,4
3,5,13,3
3,5,14,9
3,5,15,3
3,5,16,5
3,5,17,4
3,5,18,4
3,5,19,5
3,5,20,7
3,5,21,3
3,5,22,6
3,5,23,3
3,6,0,4
3,6,1,6
3,6,2,3
3,6,3,3
3,6,4,5
3,6,5,5
3,6,6,2
3,6,7,5
3,6,8,5
3,6,9,6
3,6,10,10
3,6,11,11
3,6,12,3
3,6,13,3
3,6,14,6
3,6,15,4
3,6,16,2
3,6,17,2
3,6,18,7
3,6,19,6
3,6,20,5
3,6,21,6
3,6,22,6
3,6,23,3
3,0,0,3
3,0,1,5
3,0,2,2
3,0,3,6
3,0,4,2
3,0,5,5
3,0,6,5
3,0,7,2
3,0,8,6
3,0,9,7
3,0,10,5
3,0,11,5
3,0,12,6
3,0,13,4
3,0,14,6
3,0,15,3
3,0,16,4
3,0,17,4
3,0,18,6
3,0,19,8
3,0,20,6
3,0,21,5
3,0,22,8
3,0,23,8
3,1,0,12
3,1,1,6
3,1,2,7
3,1,3,4
3,1,4,6
3,1,5,7
3,1,6,3
3,1,7,6
3,1,8,4
3,1,9,6
3,1,10,5
3,1,11,5
3,1,12,2
3,1,13,4
3,1,14,7
3,1,15,6
3,1,16,4
3,1,17,6
3,1,18,2
3,1,19,5
3,1,20,7
3,1,21,9
3,1,22,6
3,1,23,7
3,2,0,6
3,2,1,5
3,2,2,3
3,2,3,5
3,2,4,6
3,2,5,2
3,2,6,4
3,2,7,3
3,2,8,2
3,2,9,6
3,2,10,3
3,2,11,3
3,2,12,6
3,2,13,5
3,2,14,6
3,2,15,4
3,2,16,4
3,2,17,6
3,2,18,5
3,2,19,6
3,2,20,5
3,2,21,8
3,2,22,2
3,2,23,6
3,3,0,6
3,3,1,5
3,3,2,4
3,3,3,3
3,3,4,5
3,3,5,2
3,3,6,1
3,3,7,5
3,3,8,5
3,3,9,2
3,3,10,5
3,3,11,6
3,3,12,6
3,3,13,6
3,3,14,3
3,3,15,8
3,3,16,4
3,3,17,6
3,3,18,9
3,3,19,6
3,3,20,4
3,3,21,7
3,3,22,3
3,3,23,5
3,4,0,4
3,4,1,3
3,4,2,4
3,4,3,6
3,4,4,4
3,4,5,2
3,4,6,5
3,4,7,3
3,4,8,4
3,4,9,3
3,4,10,4
3,4,11,8
3,4,12,3
3,4,13,4
3,4,14,3
3,4,15,5
3,4,16,5
3,4,17,8
3,4,18,4
3,4,19,5
3,4,20,6
3,4,21,6
3,4,22,6
3,4,23,8
3,5,0,3
3,5,1,4
3,5,2,7
3,5,3,5
3,5,4,1
3,5,5,2
3,5,6,5
3,5,7,5
3,5,8,6
3,5,9,3
3,5,10,5
3,5,11,4
3,5,12,6
3,5,13,2
3,5,14,6
3,5,15,4
3,5,16,2
3,5,17,6
3,5,18,4
3,5,19,3
3,5,20,4
3,5,21,5
3,5,22,2
3,5,23,5
3,6,0,6
3,6,1,4
3,6,2,1
3,6,3,3
3,6,4,3
3,6,5,1
3,6,6,2
3,6,7,3
3,6,8,6
3,6,9,2
3,6,10,3
3,6,11,2
3,6,12,4
3,6,13,2
3,6,14,6
3,6,15,6
3,6,16,2
3,6,17,6
3,6,18,2
3,6,19,3
3,6,20,5
3,6,21,5
3,6,22,2
3,6,23,4
3,0,0,6
3,0,1,5
3,0,2,1
3,0,3,5
3,0,4,1
3,0,5,4
3,0,6,3
3,0,7,5
3,0,8,2
3,0,9,3
3,0,10,5
3,0,11,7
3,0,12,6
3,0,13,4
3,0,14,6
3,0,15,8
3,0,16,11
3,0,17,13
3,0,18,5
3,0,19,12
3,0,20,8
3,0,21,7
3,0,22,9
3,0,23,6
3,1,0,12
3,1,1,11
3,1,2,4
3,1,3,6
3,1,4,4
3,1,5,3
3,1,6,4
3,1,7,7
3,1,8,6
3,1,9,7
3,1,10,8
3,1,11,7
3,1,12,9
3,1,13,4
3,1,14,6
3,1,15,13
3,1,16,8
3,1,17,7
3,1,18,6
3,1,19,8
3,1,20,5
3,1,21,8
3,1,22,10
3,1,23,6
3,2,0,4
3,2,1,6
3,2,2,2
3,2,3,4
3,2,4,4
3,2,5,5
3,2,6,5
3,2,7,5
3,2,8,1
3,2,9,8
3,2,10,29
3,2,11,29
3,2,12,18
3,2,13,16
3,2,14,19
3,2,15,17
3,2,16,15
3,2,17,25
3,2,18,32
3,2,19,34
3,2,20,30
3,2,21,25
3,2,22,23
3,2,23,16
3,3,0,14
3,3,1,11
3,3,2,7
3,3,3,8
3,3,4,6
3,3,5,4
3,3,6,7
3,3,7,6
3,3,8,7
3,3,9,15
3,3,10,14
3,3,11,16
3,3,12,20
3,3,13,24
3,3,14,35
3,3,15,39
3,3,16,39
3,3,17,23
3,3,18,23
3,3,19,22
3,3,20,20
3,3,21,18
3,3,22,18
3,3,23,24
3,4,0,31
3,4,1,18
3,4,2,13
3,4,3,7
3,4,4,9
3,4,5,9
3,4,6,13
3,4,7,12
3,4,8,15
3,4,9,21
3,4,10,31
3,4,11,26
3,4,12,30
3,4,13,26
3,4,14,21
3,4,15,26
3,4,16,24
3,4,17,17
3,4,18,16
3,4,19,17
3,4,20,19
3,4,21,19
3,4,22,18
3,4,23,22
3,5,0,15
3,5,1,8
3,5,2,7
3,5,3,7
3,5,4,7
3,5,5,5
3,5,6,6
3,5,7,7
3,5,8,7
3,5,9,12
3,5,10,13
3,5,11,15
3,5,12,17
3,5,13,15
3,5,14,16
3,5,15,22
3,5,16,13
3,5,17,12
3,5,18,13
3,5,19,15
4,6,0,3
4,6,1,1
4,6,2,4
4,6,3,4
4,6,4,2
4,6,5,1
4,6,6,1
4,6,7,4
4,6,8,4
4,6,9,2
4,6,10,2
4,6,11,5
4,6,12,4
4,6,13,6
4,6,14,4
4,6,15,3
4,6,16,6
4,6,17,6
4,6,18,2
4,6,19,3
4,6,20,8
4,6,21,6
4,6,22,4
4,6,23,8
4,0,0,7
4,0,1,5
4,0,2,3
4,0,3,5
4,0,4,2
4,0,5,5
4,0,6,4
4,0,7,3
4,0,8,3
4,0,9,5
4,0,10,10
4,0,11,8
4,0,12,8
4,0,13,6
4,0,14,10
4,0,15,13
4,0,16,14
4,0,17,10
4,0,18,7
4,0,19,10
4,0,20,7
4,0,21,7
4,0,22,17
4,0,23,13
4,1,0,9
4,1,1,5
4,1,2,6
4,1,3,8
4,1,4,4
4,1,5,3
4,1,6,5
4,1,7,3
4,1,8,8
4,1,9,7
4,1,10,10
4,1,11,11
4,1,12,16
4,1,13,13
4,1,14,12
4,1,15,16
4,1,16,11
4,1,17,12
4,1,18,15
4,1,19,15
4,1,20,10
4,1,21,10
4,1,22,11
4,1,23,9
4,2,0,11
4,2,1,6
4,2,2,8
4,2,3,2
4,2,4,2
4,2,5,3
4,2,6,2
4,2,7,2
4,2,8,6
4,2,9,4
4,2,10,8
4,2,11,9
4,2,12,8
4,2,13,11
4,2,14,8
4,2,15,9
4,2,16,11
4,2,17,12
4,2,18,9
4,2,19,7
4,2,20,11
4,2,21,17
4,2,22,14
4,2,23,12
4,3,0,15
4,3,1,12
4,3,2,8
4,3,3,6
4,3,4,1
4,3,5,6
4,3,6,7
4,3,7,3
4,3,8,9
4,3,9,7
4,3,10,14
4,3,11,14
4,3,12,13
4,3,13,15
4,3,14,13
4,3,15,10
4,3,16,11
4,3,17,7
4,3,18,9
4,3,19,12
4,3,20,10
4,3,21,10
4,3,22,11
4,3,23,11
4,4,0,6
4,4,1,6
4,4,2,2
4,4,3,7
4,4,4,7
4,4,5,3
4,4,6,3
4,4,7,2
4,4,8,6
4,4,9,5
4,4,10,8
4,4,11,5
4,4,12,10
4,4,13,15
4,4,14,12
4,4,15,12
4,4,16,13
4,4,17,7
4,4,18,12
4,4,19,9
4,4,20,10
4,4,21,5
4,4,22,13
4,4,23,7
4,5,0,11
4,5,1,4
4,5,2,4
4,5,3,4
4,5,4,3
4,5,5,3
4,5,6,5
4,5,7,5
4,5,8,4
4,5,9,6
4,5,10,7
4,5,11,7
4,5,12,8
4,5,13,8
4,5,14,8
4,5,15,7
4,5,16,5
4,5,17,11
4,5,18,10
4,5,19,14
4,5,20,12
4,5,21,15
4,5,22,11
4,5,23,11
4,6,0,8
4,6,1,8
4,6,2,4
4,6,3,4
4,6,4,2
4,6,5,3
4,6,6,4
4,6,7,3
4,6,8,6
4,6,9,6
4,6,10,4
4,6,11,6
4,6,12,9
4,6,13,9
4,6,14,7
4,6,15,10
4,6,16,9
4,6,17,7
4,6,18,7
4,6,19,8
4,6,20,9
4,6,21,7
4,6,22,9
4,6,23,9
4,0,0,9
4,0,1,6
4,0,2,6
4,0,3,5
4,0,4,7
4,0,5,6
4,0,6,7
4,0,7,4
4,0,8,5
4,0,9,7
4,0,10,12
4,0,11,13
4,0,12,13
4,0,13,9
4,0,14,9
4,0,15,7
4,0,16,13
4,0,17,7
4,0,18,10
4,0,19,7
4,0,20,5
4,0,21,7
4,0,22,10
4,0,23,9
4,1,0,8
4,1,1,8
4,1,2,7
4,1,3,7
4,1,4,3
4,1,5,3
4,1,6,5
4,1,7,5
4,1,8,7
4,1,9,6
4,1,10,8
4,1,11,11
4,1,12,8
4,1,13,10
4,1,14,13
4,1,15,11
4,1,16,10
4,1,17,10
4,1,18,20
4,1,19,16
4,1,20,13
4,1,21,14
4,1,22,15
4,1,23,12
4,2,0,12
4,2,1,9
4,2,2,5
4,2,3,4
4,2,4,3
4,2,5,1
4,2,6,4
4,2,7,8
4,2,8,5
4,2,9,10
4,2,10,10
4,2,11,9
4,2,12,11
4,2,13,10
4,2,14,9
4,2,15,5
4,2,16,6
4,2,17,6
4,2,18,11
4,2,19,11
4,2,20,11
4,2,21,12
4,2,22,13
4,2,23,15
4,3,0,8
4,3,1,6
4,3,2,6
4,3,3,5
4,3,4,5
4,3,5,3
4,3,6,5
4,3,7,7
4,3,8,6
4,3,9,8
4,3,10,7
4,3,11,10
4,3,12,13
4,3,13,11
4,3,14,7
4,3,15,10
4,3,16,7
4,3,17,12
4,3,18,9
4,3,19,9
4,3,20,8
4,3,21,7
4,3,22,7
4,3,23,8
4,4,0,9
4,4,1,5
4,4,2,4
4,4,3,4
4,4,4,4
4,4,5,5
4,4,6,1
4,4,7,2
4,4,8,7
4,4,9,5
4,4,10,7
4,4,11,9
4,4,12,12
4,4,13,8
4,4,14,8
4,4,15,10
4,4,16,13
4,4,17,7
4,4,18,9
4,4,19,6
4,4,20,9
4,4,21,10
4,4,22,8
4,4,23,9
4,5,0,3
4,5,1,7
4,5,2,5
4,5,3,3
4,5,4,2
4,5,5,5
4,5,6,7
4,5,7,5
4,5,8,7
4,5,9,6
4,5,10,7
4,5,11,10
4,5,12,9
4,5,13,7
4,5,14,9
4,5,15,9
4,5,16,6
4,5,17,4
4,5,18,5
4,5,19,6
4,5,20,8
4,5,21,7
4,5,22,10
4,5,23,7
4,6,0,8
4,6,1,3
4,6,2,3
4,6,3,3
4,6,4,2
4,6,5,4
4,6,6,5
4,6,7,8
4,6,8,7
4,6,9,4
4,6,10,6
4,6,11,9
4,6,12,5
4,6,13,3
4,6,14,5
4,6,15,5
4,6,16,6
4,6,17,4
4,6,18,8
4,6,19,5
4,6,20,11
4,6,21,9
4,6,22,10
4,6,23,5
4,0,0,5
4,0,1,7
4,0,2,6
4,0,3,2
4,0,4,6
4,0,5,5
4,0,6,5
4,0,7,4
4,0,8,4
4,0,9,6
4,0,10,8
4,0,11,14
4,0,12,11
4,0,13,9
4,0,14,10
4,0,15,11
4,0,16,9
4,0,17,15
4,0,18,8
4,0,19,10
4,0,20,8
4,0,21,6
4,0,22,11
4,0,23,16
4,1,0,8
4,1,1,7
4,1,2,3
4,1,3,4
4,1,4,2
4,1,5,3
4,1,6,3
4,1,7,4
4,1,8,7
4,1,9,4
4,1,10,6
4,1,11,9
4,1,12,7
4,1,13,9
4,1,14,12
4,1,15,12
4,1,16,10
4,1,17,13
4,1,18,11
4,1,19,9
4,1,20,10
4,1,21,7
4,1,22,8
4,1,23,10
4,2,0,6
4,2,1,7
4,2,2,6
4,2,3,2
4,2,4,2
4,2,5,5
4,2,6,4
4,2,7,5
4,2,8,5
4,2,9,6
4,2,10,6
4,2,11,10
4,2,12,11
4,2,13,9
4,2,14,9
4,2,15,13
4,2,16,13
4,2,17,7
4,2,18,10
4,2,19,13
4,2,20,9
4,2,21,9
4,2,22,7
4,2,23,10
4,3,0,7
4,3,1,5
4,3,2,3
4,3,3,5
4,3,4,7
4,3,5,5
4,3,6,4
4,3,7,4
4,3,8,4
4,3,9,4
4,3,10,9
4,3,11,10
4,3,12,13
4,3,13,10
4,3,14,8
4,3,15,11
4,3,16,12
4,3,17,14
4,3,18,9
4,3,19,10
4,3,20,18
4,3,21,9
4,3,22,7
4,3,23,11
4,4,0,10
4,4,1,3
4,4,2,7
4,4,3,6
4,4,4,4
4,4,5,4
4,4,6,6
4,4,7,5
4,4,8,8
4,4,9,8
4,4,10,8
4,4,11,8
4,4,12,10
4,4,13,10
4,4,14,10
4,4,15,9
4,4,16,5
4,4,17,6
4,4,18,12
4,4,19,9
4,4,20,8
4,4,21,8
4,4,22,6
4,4,23,9
4,5,0,9
4,5,1,8
4,5,2,6
4,5,3,6
4,5,4,1
4,5,5,4
4,5,6,5
4,5,7,4
4,5,8,5
4,5,9,9
4,5,10,9
4,5,11,10
4,5,12,5
4,5,13,7
4,5,14,5
4,5,15,8
4,5,16,6
4,5,17,6
4,5,18,4
4,5,19,10
