2015,11,1,6,305,1,15
2015,11,1,6,305,1,13
2015,11,1,6,305,1,10
2015,11,1,6,305,1,7
2015,11,1,6,305,1,9
2015,11,1,6,305,1,6
2015,11,1,6,305,1,9
2015,11,1,6,305,1,8
2015,11,1,6,305,1,11
2015,11,1,6,305,1,12
2015,11,1,6,305,1,15
2015,11,1,6,305,1,17
2015,11,1,6,305,1,16
2015,11,1,6,305,1,15
2015,11,1,6,305,1,16
2015,11,1,6,305,1,12
2015,11,1,6,305,1,12
2015,11,1,6,305,1,16
2015,11,1,6,305,1,17
2015,11,1,6,305,1,20
2015,11,1,6,305,1,17
2015,11,1,6,305,1,19
2015,11,1,6,305,1,20
2015,11,1,6,305,1,15
2015,11,2,0,306,1,14
2015,11,2,0,306,1,12
2015,11,2,0,306,1,14
2015,11,2,0,306,1,12
2015,11,2,0,306,1,12
2015,11,2,0,306,1,11
2015,11,2,0,306,1,13
2015,11,2,0,306,1,14
2015,11,2,0,306,1,12
2015,11,2,0,306,1,22
2015,11,2,0,306,1,32
2015,11,2,0,306,1,31
2015,11,2,0,306,1,35
2015,11,2,0,306,1,26
2015,11,2,0,306,1,34
